{
    "title": "Project Manager",
    "questions": [
        {
            "question": "Оцените пунктуальность в работе и соблюдение графика"
        },
        {
            "question": "Оцените доступность сотрудника при работе, коммуникабельность"
        },
        {
            "question": "Оцените насколько сотрудник вникает в поставленную задачу, внимательность к деталям и перфекционизм при выполнении поставленных задач"
        },
        {
            "question": "Насколько часто сотрудник выполняет задачу в срок и вовремя."
        },
        {
            "question": "Насколько ответственно человек предупреждает при возникновении рисков и трудностей с задачей"
        },
        {
            "question": "Оцените насколько сотрудник инициативно подходит к решению возникших трудностей в работе"
        },
        {
            "question": "Оцените насколько сотрудник заинтересован в качественном выполнении своих задач"
        },
        {
            "question": "Оцените насколько полно выполняется поставленная задача (максимум - значит выполняет немного больше поставленной задачи)"
        },
        {
            "question": "Оцените способность сотрудника работать в команде"
        },
        {
            "question": "Оцените отношение остальных членов команды к нему"
        },
        {
            "question": "Оцените лояльность сотрудника к команде (компании)"
        },
        {
            "question": "Оцените важность для сотрудника хорошего командного результата"
        },
        {
            "question": "Насколько серьезно сотрудник подходит к исправлению собственных ошибок"
        },
        {
            "question": "Насколько сотрудник проявляет желание и стремление развиваться"
        },
        {
            "question": "Оцените инициативность"
        },
        {
            "question": "Насколько человек стремится брать на себя ответственность"
        },
        {
            "question": "Оцените организованность в работе"
        }
    ]
}
